{
  "project_info": {
    "project_number": "187875518695",
    "firebase_url": "https://pingwiz-4356e.firebaseio.com",
    "project_id": "pingwiz-4356e",
    "storage_bucket": "pingwiz-4356e.appspot.com"
  },
  "client": [
    {
      "client_info": {
        "mobilesdk_app_id": "1:187875518695:android:cf88056f8db26c7e",
        "android_client_info": {
          "package_name": "secondcomp.com.erolly"
        }
      },
      "oauth_client": [
        {
          "client_id": "187875518695-8ackdvehnsjjs06etdf6djsn84numh2s.apps.googleusercontent.com",
          "client_type": 1,
          "android_info": {
            "package_name": "secondcomp.com.erolly",
            "certificate_hash": "7c731503977bbb0eb24c246eabe7630c7dfd9dc8"
          }
        },
        {
          "client_id": "187875518695-4nj5obn8kou38h2f9qu1qeoftcus5sms.apps.googleusercontent.com",
          "client_type": 3
        }
      ],
      "api_key": [
        {
          "current_key": "AIzaSyBWsZ_gre1ezcQp73Hj86XP3f2QCOXDRo4"
        }
      ],
      "services": {
        "analytics_service": {
          "status": 1
        },
        "appinvite_service": {
          "status": 2,
          "other_platform_oauth_client": [
            {
              "client_id": "187875518695-4nj5obn8kou38h2f9qu1qeoftcus5sms.apps.googleusercontent.com",
              "client_type": 3
            }
          ]
        },
        "ads_service": {
          "status": 2
        }
      }
    }
  ],
  "configuration_version": "1"
}